{
"num_licencia": "insertada",
"cod_sistema": "6666",
"nom_cliente": "Pepito",
"observaciones": "uwqierpwq ierupwqeiurpwqe rpwe irpoqwe",
"fec_ini_uso": "2018-06-23 12:32:02",
"num_usos": "0",
"val_key": "MHÑJSKLFJP8UNPWEIJSPD98FPWQJWROOF8JFASIWEF"
}